@startuml Echo
!includeurl https://raw.githubusercontent.com/RicardoNiepel/C4-PlantUML/master/C4_Component.puml

'LAYOUT_LEFT_RIGHT

'title C4 diagram of echo server

Person_Ext(user, "Client", "Wants to send a message and get it back")
Person(admin, "Admin", "Responsible for server management")

Component(echo, "Echo server", "process", "Receives messages and and sends them back")

Rel(user, echo, "Sends", "message")
Rel(echo, user, "Replies", "message")
Rel(admin, echo, "Starts")
Rel(admin, echo, "Stops")

@enduml